{
    "playlists": {
        "href": "https://api.spotify.com/v1/search?query=rock&type=playlist&offset=0&limit=1",
        "items": [
            {
                "collaborative": false,
                "description": "Rock legends and epic songs spanning decades that continue to inspire generations.",
                "external_urls": {
                    "spotify": "https://open.spotify.com/playlist/37i9dQZF1DWXRqgorJj26U"
                },
                "href": "https://api.spotify.com/v1/playlists/37i9dQZF1DWXRqgorJj26U",
                "id": "37i9dQZF1DWXRqgorJj26U",
                "images": [
                    {
                        "height": null,
                        "url": "https://i.scdn.co/image/ab67706f00000003bd95dafe0c7057ebd57f5aee",
                        "width": null
                    }
                ],
                "name": "Rock Classics",
                "owner": {
                    "display_name": "Spotify",
                    "external_urls": {
                        "spotify": "https://open.spotify.com/user/spotify"
                    },
                    "href": "https://api.spotify.com/v1/users/spotify",
                    "id": "spotify",
                    "type": "user",
                    "uri": "spotify:user:spotify"
                },
                "primary_color": null,
                "public": null,
                "snapshot_id": "MTU5NjgwMzQxMiwwMDAwMDAwMGQ0MWQ4Y2Q5OGYwMGIyMDRlOTgwMDk5OGVjZjg0Mjdl",
                "tracks": {
                    "href": "https://api.spotify.com/v1/playlists/37i9dQZF1DWXRqgorJj26U/tracks",
                    "total": 150
                },
                "type": "playlist",
                "uri": "spotify:playlist:37i9dQZF1DWXRqgorJj26U"
            }
        ],
        "limit": 1,
        "next": "https://api.spotify.com/v1/search?query=rock&type=playlist&offset=1&limit=1",
        "offset": 0,
        "previous": null,
        "total": 2500001
    }
}
